<?xml version="1.0" encoding="UTF-8"?>
<svg width="24px" height="21px" viewBox="0 0 24 21" version="1.1" xmlns="http://www.w3.org/2000/svg" xmlns:xlink="http://www.w3.org/1999/xlink">
    <!-- Generator: sketchtool 53 (72520) - https://sketchapp.com -->
    <title>B6CFB70B-5F93-4B47-A987-81EC5B6527EB</title>
    <desc>Created with sketchtool.</desc>
    <g id="page1" stroke="none" stroke-width="1" fill="none" fill-rule="evenodd">
        <g id="icon-active---not-active" transform="translate(-292.000000, -65.000000)">
            <g id="a" transform="translate(290.000000, 61.000000)">
                <rect id="Rectangle" fill-rule="nonzero" x="0" y="0" width="28" height="28"></rect>
                <g id="Group" transform="translate(2.000000, 4.000000)" fill="#222222">
                    <path d="M22.0064438,0 L5.26057189,0 C4.16012888,0.00139445792 3.26841121,0.892453071 3.26701571,1.99208275 L3.26701571,8.36674754 L4.06443818,8.36674754 L4.06443818,1.99208275 C4.06443818,1.33210575 4.60010674,0.796833099 5.26057189,0.796833099 L22.0064438,0.796833099 C22.666909,0.796833099 23.2025775,1.33210575 23.2025775,1.99208275 L23.2025775,14.3429958 C23.2025775,15.0029728 22.666909,15.5382454 22.0064438,15.5382454 L16.8231977,15.5382454 L16.8231977,16.3350785 L22.0064438,16.3350785 C23.1068868,16.3336841 23.9986045,15.4426255 24,14.3429958 L24,1.99208275 C23.9986045,0.892453071 23.1068868,0.00139445792 22.0064438,0 Z" id="Path"></path>
                    <g id="dashboard" transform="translate(0.000000, 8.000000)" fill-rule="nonzero">
                        <path d="M10.6211154,5.00841599 L9.32573638,5.79067532 C8.86694576,6.06040575 8.38117862,6.30317261 7.92241962,6.51897592 C7.78747376,6.57293465 7.62555138,6.65385694 7.463629,6.73477923 C6.89690067,7.03150482 6.60003243,7.65188796 6.73497829,8.27230271 C6.842916,8.75783645 7.24772195,9.16244789 7.7334891,9.27033374 C7.84142681,9.2972973 7.94939614,9.2972973 8.05733386,9.2972973 C8.57007752,9.2972973 9.02886814,9.0005717 9.27175171,8.54203314 C9.32573638,8.40715212 9.40669757,8.24530754 9.48765876,8.08346297 C9.73054233,7.62489279 9.94644938,7.13935906 10.2163095,6.6808205 L10.9989449,5.38606388 C11.0529295,5.27817803 11.0259214,5.17026057 10.9449602,5.06237472 C10.863999,4.95445726 10.7290531,4.95445726 10.6211154,5.00841599 Z M9.75751885,6.3840949 C9.46065061,6.86962863 9.21776704,7.35516237 9.00189162,7.8406961 C8.94790695,8.00254068 8.86694576,8.1374217 8.78598457,8.29926627 C8.62406219,8.64991899 8.24623276,8.81176356 7.86843495,8.73084128 C7.57156671,8.67688255 7.32868314,8.43411568 7.2747301,8.1374217 C7.19376891,7.75977381 7.35569129,7.38215754 7.70651257,7.22031296 C7.84145843,7.13939067 8.00338081,7.08543194 8.16530319,7.00450965 C8.65107033,6.76174279 9.163814,6.51897592 9.62260462,6.24924549 L9.9734259,6.03344219 L9.75751885,6.3840949 Z" id="Shape"></path>
                        <path d="M15.4287187,5.00370986 C15.4253437,4.98586994 15.4202812,4.96815413 15.4133437,4.9509037 C15.406375,4.93359122 15.3975,4.91773696 15.3871875,4.90321682 C14.9875937,3.95332637 14.4070312,3.09548992 13.6888125,2.37258532 C13.6786875,2.35763081 13.6669062,2.34329682 13.6533437,2.32983156 C13.6397812,2.3163663 13.6253437,2.30466952 13.6102812,2.29461711 C12.1635312,0.877817164 10.180125,0 8,0 C6.9556875,0 5.95659375,0.201668666 5.03984375,0.567185367 C5.021875,0.570536169 5.00403125,0.575562373 4.9866875,0.582450133 C4.96928125,0.58936892 4.95328125,0.598180289 4.93865625,0.608418852 C3.98190625,1.00514766 3.117875,1.58154773 2.38975,2.29461711 C2.3746875,2.30466952 2.36025,2.3163663 2.3466875,2.32983156 C2.333125,2.34329682 2.3213125,2.35763081 2.31121875,2.37258532 C0.88415625,3.80896263 0,5.77814857 0,7.94264285 C0,9.74298557 0.58665625,11.4638708 1.73334375,12.8670814 C1.7866875,12.9465078 1.8666875,12.972973 1.9466875,12.972973 L14.0533437,12.972973 C14.1333437,12.972973 14.2133437,12.9465078 14.2666875,12.8670814 C15.4133437,11.4639019 16,9.74298557 16,7.94264285 C16,6.9058177 15.796875,5.91388709 15.4287187,5.00370986 Z M13.9466562,12.4434841 L2.08,12.4434841 C1.71940625,11.981818 1.4199375,11.4865198 1.18328125,10.9661526 L1.92,10.6696376 C2.05334375,10.6166763 2.10665625,10.4578234 2.05334375,10.3254667 C2,10.193079 1.84,10.1401487 1.7066875,10.193079 L0.9845,10.4837611 C0.7165625,9.75955342 0.5659375,8.99386404 0.5383125,8.20741829 L2.4,8.20741829 C2.56,8.20741829 2.66665625,8.10152673 2.66665625,7.94267387 C2.66665625,7.78382101 2.56,7.67789843 2.4,7.67789843 L0.53865625,7.67789843 C0.5685625,6.84308323 0.73915625,6.04236555 1.02765625,5.29839432 L1.76,5.61281129 C1.78665625,5.63927642 1.84,5.63927642 1.86665625,5.63927642 C1.9733125,5.63927642 2.0533125,5.58631513 2.10665625,5.48042356 C2.16,5.34803584 2.10665625,5.18918298 1.9733125,5.13625272 L1.2335625,4.81864008 C1.56790625,4.11028665 2.011875,3.46215458 2.543625,2.89605512 L3.0933125,3.44180156 C3.14665625,3.49476285 3.19996875,3.52122799 3.27996875,3.52122799 C3.35996875,3.52122799 3.4133125,3.49476285 3.466625,3.44180156 C3.57328125,3.33591 3.57328125,3.17705714 3.466625,3.07113455 L2.9169375,2.52538811 C3.51434375,1.9722575 4.20228125,1.51453168 4.9558125,1.17768296 L5.2533125,1.90623428 C5.27996875,2.01212585 5.38665625,2.06508714 5.4933125,2.06508714 C5.51996875,2.06508714 5.54665625,2.06508714 5.59996875,2.03862201 C5.7333125,1.98566071 5.786625,1.82680785 5.7333125,1.69445116 L5.44178125,0.980482028 C6.1611875,0.717909425 6.93175,0.563120967 7.7333125,0.534825302 L7.7333125,2.38282388 C7.7333125,2.54167674 7.83996875,2.6475683 7.99996875,2.6475683 C8.15996875,2.6475683 8.266625,2.54167674 8.266625,2.38282388 L8.266625,0.534794276 C9.10746875,0.564486109 9.91396875,0.733856763 10.6633125,1.02028832 L10.346625,1.74741245 C10.2932812,1.87980017 10.346625,2.03865303 10.4799687,2.0915833 C10.506625,2.11804843 10.5599687,2.11804843 10.586625,2.11804843 C10.6932812,2.11804843 10.7999687,2.03862201 10.826625,1.95919558 L11.1465312,1.22474932 C11.86,1.55669595 12.5128125,1.9974816 13.083,2.52541914 L12.5333125,3.07116558 C12.4266562,3.17705714 12.4266562,3.33591 12.5333125,3.44183258 C12.5866562,3.49479388 12.6399687,3.52125901 12.7199687,3.52125901 C12.7733125,3.52125901 12.8533125,3.49479388 12.906625,3.44183258 L13.4563125,2.89608615 C14.0134375,3.48920921 14.4744687,4.17221444 14.81375,4.92034314 L14.0799375,5.21571017 C13.9465937,5.26867146 13.8932812,5.42752432 13.9465937,5.55988102 C13.97325,5.66577258 14.0799375,5.71873387 14.1865937,5.71873387 C14.21325,5.71873387 14.2399375,5.69226874 14.29325,5.69226874 L15.0124062,5.40282767 C15.276875,6.11707603 15.4327812,6.88211387 15.4612812,7.67792945 L13.6,7.67792945 C13.44,7.67792945 13.3333437,7.78382101 13.3333437,7.94267387 C13.3333437,8.10152673 13.44,8.20741829 13.6,8.20741829 L15.4617187,8.20741829 C15.43275,9.03249134 15.2688437,9.8347293 14.9799062,10.5901801 L14.24,10.2725054 C14.1066562,10.2195441 13.9466562,10.2725054 13.8933437,10.4048932 C13.84,10.5372809 13.8933437,10.6961337 14.0266875,10.749064 L14.7760937,11.0708031 C14.551375,11.5529774 14.2741562,12.012875 13.9466562,12.4434841 Z" id="Shape"></path>
                    </g>
                </g>
            </g>
        </g>
    </g>
</svg>