<?xml version="1.0" encoding="UTF-8"?>
<svg width="22px" height="21px" viewBox="0 0 22 21" version="1.1" xmlns="http://www.w3.org/2000/svg" xmlns:xlink="http://www.w3.org/1999/xlink">
    <!-- Generator: sketchtool 53 (72520) - https://sketchapp.com -->
    <title>239BB399-696B-4634-88C7-1E5D1C297601</title>
    <desc>Created with sketchtool.</desc>
    <g id="page1" stroke="none" stroke-width="1" fill="none" fill-rule="evenodd">
        <g id="icon-active---not-active" transform="translate(-84.000000, -323.000000)">
            <g id="active-f" transform="translate(80.000000, 321.000000)">
                <rect id="Rectangle" fill-rule="nonzero" x="0" y="0" width="28" height="28"></rect>
                <g id="dashboard-icon-2" transform="translate(4.000000, 2.000000)" fill="#FFFFFF">
                    <g id="dashboard-icon">
                        <path d="M20.0064438,0 L3.26057189,0 C2.16012888,0.00139445792 1.26841121,0.892453071 1.26701571,1.99208275 L1.26701571,8.36674754 L2.06443818,8.36674754 L2.06443818,1.99208275 C2.06443818,1.33210575 2.60010674,0.796833099 3.26057189,0.796833099 L20.0064438,0.796833099 C20.666909,0.796833099 21.2025775,1.33210575 21.2025775,1.99208275 L21.2025775,14.3429958 C21.2025775,15.0029728 20.666909,15.5382454 20.0064438,15.5382454 L14.8231977,15.5382454 L14.8231977,16.3350785 L20.0064438,16.3350785 C21.1068868,16.3336841 21.9986045,15.4426255 22,14.3429958 L22,1.99208275 C21.9986045,0.892453071 21.1068868,0.00139445792 20.0064438,0 Z" id="Path"></path>
                        <g id="pen" transform="translate(0.000000, 6.000000)" fill-rule="nonzero">
                            <path d="M15.2983969,1.44989883 L14.4297588,0.5812607 C14.4296654,0.581167315 14.4295097,0.581042802 14.4293852,0.580949416 C14.0701012,0.221821012 13.5924981,0.0240311284 13.0844825,0.0240311284 C12.5763113,0.0240311284 12.0985525,0.221914397 11.7392062,0.581291829 L7.29777432,5.02269261 C7.29777432,5.02269261 7.29777432,5.02269261 7.29774319,5.02272374 L7.29771206,5.02275486 L1.34393774,10.9764981 C1.34368872,10.9767471 1.34350195,10.9769961 1.34325292,10.9772763 C1.33596887,10.9845914 1.32905837,10.9923735 1.32236576,11.0003113 C1.32136965,11.0014942 1.32028016,11.0026148 1.31931518,11.0037665 C1.31296498,11.0115798 1.30708171,11.0197354 1.30135409,11.0280778 C1.30029572,11.0296342 1.29908171,11.0310973 1.29802335,11.032716 C1.29316732,11.04 1.28880934,11.0476576 1.28445136,11.0553774 C1.28283268,11.0582724 1.28102724,11.0610428 1.27950195,11.0639689 C1.27623346,11.0701946 1.27336965,11.0767004 1.27041245,11.0831751 C1.26826459,11.0878755 1.26596109,11.0925447 1.264,11.0973074 C1.26188327,11.1025681 1.26014008,11.1079844 1.25824125,11.1133385 C1.25603113,11.1195953 1.25375875,11.1258521 1.25189105,11.1322335 C1.25151751,11.1334475 1.25105058,11.1345681 1.25067704,11.1358132 L0.427953307,14.0675175 L0.137836576,14.3576342 C-0.00451361868,14.4999844 -0.00451361868,14.7307704 0.137836576,14.8731518 C0.209027237,14.9443424 0.302287938,14.9799222 0.395579767,14.9799222 C0.488871595,14.9799222 0.582132296,14.9443424 0.653322957,14.8731518 L0.943439689,14.583035 L3.8751751,13.7602802 C3.87576654,13.7600934 3.87629572,13.7598755 3.87688716,13.7596887 C3.88603891,13.7570739 3.89506615,13.7538988 3.90403113,13.7505681 C3.90645914,13.7496654 3.90898054,13.7489183 3.91140856,13.7479844 C3.91950195,13.7447782 3.92737743,13.7409805 3.93528405,13.7371829 C3.93842802,13.7356887 3.9416965,13.7343813 3.94477821,13.7327626 C3.95019455,13.72993 3.95542412,13.7266304 3.96074708,13.7235175 C3.96600778,13.7204669 3.97136187,13.717572 3.97637354,13.7143035 C3.97936187,13.7123424 3.98219455,13.7100389 3.98515175,13.7079844 C3.9922179,13.703035 3.99928405,13.6980545 4.0059144,13.6926693 C4.00803113,13.6909572 4.01002335,13.6889961 4.01210895,13.6871907 C4.01929961,13.6810895 4.02636576,13.6748949 4.03302724,13.6682957 C4.03346304,13.6678599 4.03396109,13.6674864 4.03439689,13.6670195 L9.98795331,7.71346304 C9.98801556,7.71340078 9.98814008,7.71330739 9.98820233,7.71321401 C9.98826459,7.71315175 9.98835798,7.71302724 9.98845136,7.71296498 L14.4296965,3.27171984 C14.7339767,2.96743969 14.913214,2.5848716 14.9678444,2.18820233 C15.1444669,2.44554086 15.2398444,2.74963424 15.2398444,3.06854475 C15.2398444,3.48529183 15.0775409,3.87710506 14.7828482,4.17176654 L10.9971051,7.95763424 C10.8547549,8.09998444 10.8547549,8.33077043 10.9971051,8.47315175 C11.0682957,8.54434241 11.1615564,8.57992218 11.2548482,8.57992218 C11.3481712,8.57992218 11.4414008,8.54434241 11.5125914,8.47315175 L15.2983658,4.68737743 C15.7307393,4.25500389 15.9689027,3.68012451 15.9689027,3.06863813 C15.9689027,2.45715175 15.7307704,1.88224125 15.2983969,1.44989883 Z M1.27950195,13.7315486 L1.78437354,11.9323891 L3.07863035,13.2266459 L1.27950195,13.7315486 Z M3.77674708,12.893821 L2.11719844,11.2342412 L7.55548638,5.79598444 L9.21506615,7.4555642 L3.77674708,12.893821 Z M13.9142724,2.75629572 L9.73055253,6.94001556 L8.07097276,5.2804358 L12.2547237,1.09671595 C12.4763268,0.875050584 12.7710506,0.752996109 13.0845136,0.752996109 C13.3977899,0.752996109 13.692358,0.874957198 13.91393,1.09634241 C13.9140233,1.09646693 13.9141479,1.09659144 13.9142724,1.09671595 L13.9153307,1.09777432 C14.3717977,1.55545525 14.3714864,2.29914397 13.9142724,2.75629572 Z" id="Shape"></path>
                        </g>
                    </g>
                </g>
            </g>
        </g>
    </g>
</svg>